<svg width="44" height="44" viewBox="0 0 44 44" fill="none" xmlns="http://www.w3.org/2000/svg">
<path d="M40.2184 11.2804L42.3039 9.19522C42.6503 8.84846 42.7645 8.33208 42.5962 7.87181C42.4279 7.41121 42.0076 7.09036 41.5188 7.04903L37.65 6.7226L37.3235 2.85374C37.2825 2.36526 36.9613 1.94501 36.5011 1.77671C36.0408 1.60809 35.5244 1.72225 35.1777 2.06902L33.0922 4.15419C29.7197 2.0864 25.8636 0.997559 21.875 0.997559C16.1322 0.997559 10.733 3.23397 6.67219 7.29475C2.61141 11.3555 0.375 16.7548 0.375 22.4976C0.375 28.2403 2.61141 33.6396 6.67219 37.7004C10.733 41.7611 16.1322 43.9976 21.875 43.9976C27.6178 43.9976 33.017 41.7611 37.0778 37.7004C41.1386 33.6396 43.375 28.2403 43.375 22.4976C43.375 18.509 42.2862 14.6532 40.2184 11.2804ZM35.2285 7.99451C35.2803 8.60667 35.7659 9.09221 36.3781 9.14404L38.604 9.3317L35.591 12.3446L32.3051 12.0674L32.0279 8.78153L35.0409 5.76859L35.2285 7.99451ZM26.1582 22.4976C26.1582 24.8593 24.2367 26.7808 21.875 26.7808C19.5133 26.7808 17.5918 24.8593 17.5918 22.4976C17.5918 20.1358 19.5133 18.2144 21.875 18.2144C22.5984 18.2144 23.2798 18.3951 23.8778 18.713L20.9843 21.6069C20.4922 22.0986 20.4922 22.8962 20.9843 23.3883C21.23 23.6343 21.5525 23.7573 21.875 23.7573C22.1975 23.7573 22.52 23.6343 22.7657 23.3883L25.6595 20.4947C25.9774 21.0928 26.1582 21.7742 26.1582 22.4976ZM25.7091 16.8818C24.6166 16.1338 23.2962 15.6948 21.875 15.6948C18.1239 15.6948 15.0723 18.7465 15.0723 22.4976C15.0723 26.2486 18.1239 29.3003 21.875 29.3003C25.6261 29.3003 28.6777 26.2486 28.6777 22.4976C28.6777 21.0764 28.2388 19.7559 27.4908 18.6635L31.0877 15.0666C32.731 17.0999 33.7168 19.6857 33.7168 22.4976C33.7168 29.027 28.4045 34.3394 21.875 34.3394C15.3455 34.3394 10.0332 29.027 10.0332 22.4976C10.0332 15.9681 15.3455 10.6558 21.875 10.6558C24.6868 10.6558 27.2726 11.6416 29.306 13.2849L25.7091 16.8818ZM35.2961 35.9187C31.7113 39.5037 26.9449 41.478 21.875 41.478C16.8051 41.478 12.0387 39.5037 8.4539 35.9187C4.86882 32.3339 2.89453 27.5675 2.89453 22.4976C2.89453 17.4277 4.86882 12.6612 8.4539 9.07646C12.0387 5.49138 16.8051 3.51709 21.875 3.51709C25.1917 3.51709 28.4045 4.36907 31.2537 5.99266L29.8328 7.41351C29.6032 7.64315 29.4723 7.95087 29.4641 8.27205C29.4631 8.31798 29.4644 8.36391 29.468 8.41016L29.6376 10.4202C27.398 8.97542 24.7328 8.13623 21.875 8.13623C13.9562 8.13623 7.51367 14.5788 7.51367 22.4976C7.51367 30.4164 13.9562 36.8589 21.875 36.8589C29.7938 36.8589 36.2363 30.4164 36.2363 22.4976C36.2363 19.6398 35.3971 16.9746 33.9523 14.7349L35.9624 14.9045C35.9978 14.9071 36.0333 14.9088 36.0684 14.9088C36.0743 14.9088 36.0805 14.9081 36.0864 14.9078C36.1031 14.9078 36.1195 14.9065 36.1363 14.9055C36.1635 14.9039 36.1911 14.9022 36.218 14.8989C36.2347 14.8966 36.2514 14.894 36.2682 14.8914C36.2947 14.8871 36.321 14.8822 36.3472 14.8763C36.3639 14.8724 36.3803 14.8681 36.3968 14.8638C36.4223 14.8569 36.4476 14.8491 36.4729 14.8405C36.4893 14.835 36.5053 14.8294 36.5214 14.8232C36.546 14.8136 36.5703 14.8031 36.5946 14.7917C36.61 14.7848 36.6254 14.7779 36.6408 14.77C36.6651 14.7575 36.6887 14.7438 36.712 14.73C36.7261 14.7215 36.7402 14.7136 36.754 14.7051C36.7789 14.6887 36.8029 14.6709 36.8268 14.6529C36.838 14.6444 36.8495 14.6368 36.8603 14.628C36.8944 14.6004 36.9276 14.5712 36.9591 14.5397L38.3799 13.1189C40.0035 15.9681 40.8555 19.1808 40.8555 22.4976C40.8555 27.5675 38.8812 32.3339 35.2961 35.9187Z" fill="#FCAF17"/>
</svg>
