<svg width="89" height="73" viewBox="0 0 89 73" fill="none" xmlns="http://www.w3.org/2000/svg">
<path d="M35.6074 64.0391H37.4777V58.1458H43.6642V64.0391H45.4626V51.1025H43.6642V56.4928H37.4777V51.1025H35.6074V64.0391Z" fill="white"/>
<path d="M24.458 50.9597C23.5229 50.5285 22.5158 50.3848 21.5806 50.3848C17.6242 50.3848 14.7468 53.044 14.7468 56.9968C14.7468 61.0934 17.4803 63.7525 21.5806 63.7525C22.3719 63.7525 23.5229 63.6807 24.53 63.3213L24.3861 61.5246C23.7387 61.9558 22.4438 62.1714 21.5087 62.1714C18.8471 62.1714 16.6171 60.1591 16.6171 57.1405C16.6171 54.1939 18.6313 52.1096 21.5806 52.1096C22.5158 52.1096 23.4509 52.3253 24.2422 52.8283L24.458 50.9597ZM12.229 50.8879C11.3658 50.6004 10.2868 50.4566 9.49549 50.4566C7.12162 50.4566 5.32324 51.6784 5.32324 53.9783C5.32324 58.003 10.8623 57.2124 10.8623 60.0872C10.8623 61.5965 9.35162 62.1714 8.34452 62.1714C7.40937 62.1714 6.2584 61.8121 5.68292 61.5246L5.46711 63.2495C6.33034 63.5369 7.19356 63.7525 8.12872 63.7525C10.7184 63.7525 12.8764 62.6745 12.8764 59.8716C12.8764 55.6313 7.33743 56.2062 7.33743 53.6908C7.33743 52.3252 8.56033 51.9659 9.56742 51.9659C10.5026 51.9659 11.0781 52.1096 12.0132 52.469L12.229 50.8879Z" fill="white"/>
<path d="M27.9824 53.5466V52.7561C27.9824 52.0374 28.2701 51.678 28.7737 51.678C29.2772 51.678 29.6369 52.1092 29.6369 52.8998V53.5466H27.9824ZM32.802 54.3372V53.5466H30.3562V53.0436C30.3562 52.6123 30.3562 52.3967 30.9317 52.1092L32.874 51.2468V50.3125L30.644 51.3905C30.2843 51.5343 30.2124 51.678 30.0685 51.9655C29.9246 51.3187 29.493 50.8156 28.7737 50.8156C27.4788 50.8156 27.263 51.8936 27.263 52.9717V54.3372H32.802ZM29.9966 60.4461C31.6511 60.4461 32.874 59.44 32.874 57.787C32.874 56.134 31.723 55.1278 29.9966 55.1278C28.342 55.1278 27.1191 56.134 27.1191 57.787C27.1911 59.44 28.414 60.4461 29.9966 60.4461ZM29.9966 59.5837C28.8456 59.5837 27.8385 59.0087 27.8385 57.787C27.8385 56.5652 28.8456 55.9902 29.9966 55.9902C31.0756 55.9902 32.1546 56.5652 32.1546 57.787C32.1546 59.0087 31.1475 59.5837 29.9966 59.5837ZM32.802 63.824V63.0334H30.2843V60.9492H29.5649V63.0334H27.9104V60.8774H27.1911V63.824H32.802Z" fill="white"/>
<path d="M52.5128 71.0823H53.0882V69.7168C53.0882 68.9981 53.376 68.495 53.9515 68.495C54.455 68.495 54.5989 68.8543 54.5989 69.573V71.0823H55.1744V69.3574C55.1744 68.5669 54.8147 68.0638 54.0953 68.0638C53.6637 68.0638 53.376 68.2075 53.1602 68.5669V66.7701H52.5128V71.0823ZM52.0092 68.1356H51.2179V67.2732L50.6424 67.4169V68.0638H49.995V68.495H50.6424V70.2199C50.6424 70.7948 51.0021 71.0823 51.5776 71.0823C51.7215 71.0823 51.9373 71.0104 52.0092 71.0104V70.5792C51.9373 70.6511 51.7934 70.6511 51.6495 70.6511C51.4337 70.6511 51.2179 70.4355 51.2179 70.148V68.5669H52.0092V68.1356ZM49.1318 71.0823H49.6353V66.7701H49.0599V71.0823H49.1318ZM47.765 69.9324C47.765 70.3636 47.4773 70.7229 46.9737 70.7229C46.7579 70.7229 46.3983 70.5792 46.3983 70.2199C46.3983 69.7168 47.1176 69.6449 47.4054 69.6449C47.5492 69.6449 47.6212 69.6449 47.765 69.6449V69.9324ZM46.1824 68.8543C46.3983 68.6387 46.7579 68.5669 47.0457 68.5669C47.6212 68.5669 47.765 68.8543 47.765 69.3574C47.5492 69.3574 47.4053 69.3574 47.1895 69.3574C46.6141 69.3574 45.8228 69.573 45.8228 70.2917C45.8228 70.9386 46.2544 71.226 46.9018 71.226C47.4053 71.226 47.6931 70.9386 47.837 70.7948V71.1542H48.3405C48.3405 71.0823 48.3405 70.9386 48.3405 70.5792V69.3574C48.3405 68.5669 47.9808 68.1356 47.1895 68.1356C46.8299 68.1356 46.4702 68.2794 46.2544 68.4231L46.1824 68.8543ZM43.377 69.3574C43.4489 68.9981 43.6647 68.5669 44.1683 68.5669C44.5999 68.5669 44.8876 68.9262 44.8876 69.3574H43.377ZM45.2473 70.4355C45.1034 70.5792 44.6718 70.7229 44.3121 70.7229C43.8086 70.7229 43.377 70.2917 43.377 69.7168H45.4631C45.4631 68.7825 45.1754 68.0638 44.1683 68.0638C43.305 68.0638 42.8015 68.7106 42.8015 69.573C42.8015 70.5073 43.305 71.1542 44.3121 71.1542C44.8157 71.1542 45.0315 71.0104 45.2473 70.9386V70.4355ZM39.0609 71.0823H39.6363V69.2856H41.5786V71.0823H42.1541V67.0576H41.5786V68.7106H39.6363V67.0576H39.0609V71.0823ZM35.536 71.0823H36.1115V69.7168C36.1115 68.9981 36.3993 68.495 36.9028 68.495C36.9747 68.495 37.1186 68.495 37.1905 68.5669V68.0638C37.0467 68.0638 36.9747 67.9919 36.8309 67.9919C36.5431 67.9919 36.1834 68.2075 36.0396 68.495V68.0638H35.536V71.0823ZM32.5147 69.6449C32.5147 69.0699 32.8744 68.5669 33.4499 68.5669C34.0254 68.5669 34.3851 69.1418 34.3851 69.6449C34.3851 70.148 34.0973 70.7229 33.4499 70.7229C32.8025 70.7229 32.5147 70.148 32.5147 69.6449ZM31.9393 69.6449C31.9393 70.5073 32.5147 71.1542 33.4499 71.1542C34.3131 71.1542 34.9605 70.4355 34.9605 69.6449C34.9605 68.7825 34.3851 68.1356 33.4499 68.1356C32.5867 68.0638 31.9393 68.7106 31.9393 69.6449ZM30.4286 71.0823H31.0041V68.5669H31.7954V68.1356H31.0041V67.8482C31.0041 67.4169 31.076 67.1295 31.5077 67.1295C31.5796 67.1295 31.7235 67.1295 31.7954 67.1295V66.6982C31.6515 66.6982 31.5796 66.6982 31.4357 66.6982C30.6444 66.6982 30.4286 67.1295 30.4286 67.8482V68.1356H29.7093V68.5669H30.4286V71.0823ZM27.5512 69.6449C27.5512 70.0761 27.3354 70.7229 26.7599 70.7229C26.1844 70.7229 25.8967 70.148 25.8967 69.6449C25.8967 69.0699 26.1844 68.5669 26.7599 68.5669C27.3354 68.495 27.5512 69.0699 27.5512 69.6449ZM25.3212 71.0823H25.8248V70.6511C25.9686 70.8667 26.3283 71.1542 26.8319 71.1542C27.6951 71.1542 28.1267 70.3636 28.1267 69.573C28.1267 68.7825 27.6951 68.0638 26.8319 68.0638C26.3283 68.0638 26.0406 68.2794 25.8248 68.5669V66.7701H25.2493V71.0823H25.3212ZM24.6019 68.1356H24.0264V69.5012C24.0264 70.2199 23.7386 70.7229 23.1632 70.7229C22.6596 70.7229 22.5157 70.3636 22.5157 69.6449V68.1356H21.9403V69.8605C21.9403 70.6511 22.2999 71.1542 23.0193 71.1542C23.4509 71.1542 23.8106 70.9386 23.9544 70.6511V71.0823H24.458V68.1356H24.6019ZM20.6454 71.0823H21.2209V66.7701H20.6454V71.0823ZM20.0699 67.2013C19.7822 67.0576 19.4945 67.0576 19.1348 67.0576C17.9119 67.0576 16.9767 67.8482 16.9767 69.1418C16.9767 70.4355 17.84 71.226 19.0629 71.226C19.2787 71.226 19.6383 71.226 19.998 71.0823V70.5073C19.7822 70.6511 19.4225 70.7229 19.1348 70.7229C18.2716 70.7229 17.6241 70.0761 17.6241 69.1418C17.6241 68.2075 18.2716 67.5607 19.1348 67.5607C19.4225 67.5607 19.7103 67.6325 19.998 67.7763L20.0699 67.2013ZM13.4519 71.0104C13.6677 71.1542 13.9554 71.1542 14.2432 71.1542C14.7467 71.1542 15.2503 70.8667 15.2503 70.2199C15.2503 69.2855 13.9554 69.4293 13.9554 68.8543C13.9554 68.6387 14.1713 68.495 14.459 68.495C14.6029 68.495 14.8906 68.5669 15.0345 68.6387L15.1064 68.1356C14.8906 68.0638 14.6748 67.9919 14.459 67.9919C13.8835 67.9919 13.4519 68.2794 13.4519 68.9262C13.4519 69.7168 14.7467 69.7168 14.7467 70.2199C14.7467 70.5073 14.459 70.6511 14.1713 70.6511C14.0274 70.6511 13.7396 70.5792 13.5238 70.4355L13.4519 71.0104ZM13.2361 68.1356H12.4448V67.2732L11.8693 67.4169V68.0638H11.2219V68.495H11.8693V70.2199C11.8693 70.7948 12.229 71.0823 12.8045 71.0823C12.9484 71.0823 13.1642 71.0104 13.2361 71.0104V70.5792C13.1642 70.6511 13.0203 70.6511 12.8764 70.6511C12.6606 70.6511 12.4448 70.4355 12.4448 70.148V68.5669H13.2361V68.1356ZM9.56739 71.0823H10.1429V69.7168C10.1429 68.9981 10.4306 68.495 10.9342 68.495C11.0061 68.495 11.15 68.495 11.2219 68.5669V68.0638C11.078 68.0638 11.0061 67.9919 10.8622 67.9919C10.5745 67.9919 10.2148 68.2075 10.0709 68.495V68.0638H9.56739V71.0823ZM6.61805 69.6449C6.61805 69.0699 6.97772 68.5669 7.55321 68.5669C8.12869 68.5669 8.48836 69.1418 8.48836 69.6449C8.48836 70.148 8.20062 70.7229 7.55321 70.7229C6.90579 70.7229 6.61805 70.148 6.61805 69.6449ZM6.04256 69.6449C6.04256 70.5073 6.61805 71.1542 7.55321 71.1542C8.41643 71.1542 9.06385 70.4355 9.06385 69.6449C9.06385 68.7825 8.48836 68.1356 7.55321 68.1356C6.61805 68.0638 6.04256 68.7106 6.04256 69.6449ZM5.10741 69.6449C5.10741 70.0761 4.8916 70.7229 4.31612 70.7229C3.74063 70.7229 3.45289 70.148 3.45289 69.6449C3.45289 69.0699 3.74063 68.5669 4.31612 68.5669C4.8916 68.495 5.10741 69.0699 5.10741 69.6449ZM2.87741 72.3041H3.45289V70.7229C3.59676 71.0104 3.88451 71.226 4.45999 71.226C5.32321 71.226 5.75482 70.4355 5.75482 69.6449C5.75482 68.8543 5.32321 68.1356 4.45999 68.1356C3.95644 68.1356 3.59676 68.4231 3.45289 68.6387V68.2075H2.87741V72.3041ZM2.15806 67.1295C1.87032 67.0576 1.58258 66.9857 1.29484 66.9857C0.575482 66.9857 0 67.3451 0 68.0638C0 69.2855 1.72645 69.0699 1.72645 69.9324C1.72645 70.4355 1.29484 70.5792 0.935159 70.5792C0.647418 70.5792 0.287741 70.4355 0.0719353 70.3636L0 70.8667C0.287741 70.9386 0.575482 71.0104 0.791288 71.0104C1.58258 71.0104 2.22999 70.6511 2.22999 69.7886C2.22999 68.495 0.503547 68.6387 0.503547 67.8482C0.503547 67.4169 0.863223 67.3451 1.2229 67.3451C1.51064 67.3451 1.65451 67.4169 1.94225 67.4888L2.15806 67.1295Z" fill="white"/>
<path d="M63.8792 32.7051L88.1933 0.364803C88.1933 0.364803 50.9308 -1.50375 63.8792 32.7051Z" fill="#FCAF17"/>
<path d="M63.807 33.4971C63.807 33.4971 64.2386 35.3657 67.2599 40.8278C67.2599 40.8278 71.5041 49.0209 49.8516 51.177L63.807 33.4971Z" fill="#ED1D24"/>
</svg>
