<svg width="59" height="78" viewBox="0 0 59 78" fill="none" xmlns="http://www.w3.org/2000/svg">
<path d="M21.7814 49.5375L59 0.0277453C59 0.0277453 1.96085 -2.83281 21.7814 49.5375Z" fill="#FCAF17"/>
<path d="M21.6713 50.7477C21.6713 50.7477 22.332 53.6082 26.9568 61.9699C26.9568 61.9699 33.4535 74.5123 0.309174 77.813L21.6713 50.7477Z" fill="#ED1D24"/>
</svg>
